{
  "entry": {
    "main": [
      "./scripts/main.js",
      "./scripts/dac.js",
      "./styles/main.scss"
    ],
    "admin": [
      "./scripts/admin.js",
      "./styles/admin.scss"
    ],
    "login": [
      "./scripts/login.js",
      "./styles/login.scss"
    ],
    "customizer": [
      "./scripts/customizer.js"
    ]
  },
  "publicPath": "/wp-content/themes/boiler-plate",
  "devUrl": "localhost:8888/cr",
  "proxyUrl": "http://localhost:3000/cr",
  "cacheBusting": "[name]_[hash:8]",
  "watch": [
    "app/**/*.php",
    "config/**/*.php",
    "resources/views/**/*.php"
  ]
}
