{
    "key": "group_5d0aa8a90577c",
    "title": "Default Page Banners",
    "fields": [
        {
            "key": "field_5d0aa8b37fc13",
            "label": "Option - Default Banner Images",
            "name": "default_banner_images",
            "type": "repeater",
            "instructions": "These banner images will show by default if no custom banner image is set. The image is chosen at random on every page load.",
            "required": 0,
            "conditional_logic": 0,
            "wrapper": {
                "width": "",
                "class": "",
                "id": ""
            },
            "collapsed": "field_5d0aa9117fc14",
            "min": 1,
            "max": 0,
            "layout": "row",
            "button_label": "Add Banner Image",
            "sub_fields": [
                {
                    "key": "field_5d0aa9117fc14",
                    "label": "Default Banner Image",
                    "name": "default_banner_image",
                    "type": "image",
                    "instructions": "",
                    "required": 0,
                    "conditional_logic": 0,
                    "wrapper": {
                        "width": "",
                        "class": "",
                        "id": ""
                    },
                    "return_format": "id",
                    "preview_size": "banner",
                    "library": "all",
                    "min_width": 1500,
                    "min_height": 514,
                    "min_size": "",
                    "max_width": "",
                    "max_height": "",
                    "max_size": "",
                    "mime_types": ""
                }
            ]
        }
    ],
    "location": [
        [
            {
                "param": "options_page",
                "operator": "==",
                "value": "acf-options-default-page-banners"
            }
        ]
    ],
    "menu_order": 0,
    "position": "normal",
    "style": "default",
    "label_placement": "top",
    "instruction_placement": "label",
    "hide_on_screen": "",
    "active": 1,
    "description": "",
    "modified": 1560982437
}